{"count":8966,"next":"http://localhost:8000/api/hours/?count=21&page=2","previous":null,"results":[{"id":907,"hour":"2015-01-31T23:00:00","sound_avg":79.7291803680982,"sound_min":67.0696,"sound_max":88.2416,"sound_std":52.8408350249382,"sound_var":895.541113899657,"sound_count":231,"sensor":2},{"id":908,"hour":"2015-02-01T00:00:00","sound_avg":79.1172549019608,"sound_min":71.4304,"sound_max":86.472,"sound_std":52.5738554913152,"sound_var":776.47009189872,"sound_count":214,"sensor":2},{"id":909,"hour":"2015-02-01T01:00:00","sound_avg":79.6830453781513,"sound_min":71.9992,"sound_max":87.0408,"sound_std":52.6275906382552,"sound_var":799.71035973919,"sound_count":217,"sensor":2},{"id":910,"hour":"2015-02-01T02:00:00","sound_avg":80.4743731092437,"sound_min":69.8504,"sound_max":89.3792,"sound_std":52.4372134167907,"sound_var":719.019287037168,"sound_count":205,"sensor":2},{"id":911,"hour":"2015-02-01T03:00:00","sound_avg":79.7434128851541,"sound_min":70.356,"sound_max":88.7472,"sound_std":52.4692130192928,"sound_var":732.261505198158,"sound_count":207,"sensor":2},{"id":912,"hour":"2015-02-01T04:00:00","sound_avg":79.1961,"sound_min":69.0288,"sound_max":87.9888,"sound_std":52.7408048381471,"sound_var":849.871383333333,"sound_count":225,"sensor":2},{"id":913,"hour":"2015-02-01T05:00:00","sound_avg":79.3629736694678,"sound_min":69.9768,"sound_max":86.9776,"sound_std":52.6889641456317,"sound_var":826.701320390117,"sound_count":221,"sensor":2},{"id":914,"hour":"2015-02-01T06:00:00","sound_avg":78.8594980392157,"sound_min":69.6608,"sound_max":88.8736,"sound_std":53.0587939410392,"sound_var":999.438942121162,"sound_count":245,"sensor":2},{"id":915,"hour":"2015-02-01T07:00:00","sound_avg":79.379968627451,"sound_min":70.672,"sound_max":89.948,"sound_std":52.457588624488,"sound_var":727.436055846652,"sound_count":207,"sensor":2},{"id":916,"hour":"2015-02-01T08:00:00","sound_avg":78.4312605042017,"sound_min":70.988,"sound_max":88.1152,"sound_std":52.3108606546046,"sound_var":667.997769197091,"sound_count":197,"sensor":2},{"id":917,"hour":"2015-02-01T09:00:00","sound_avg":78.1405759103641,"sound_min":68.5864,"sound_max":84.9552,"sound_std":52.1477184849852,"sound_var":605.109775838179,"sound_count":187,"sensor":2},{"id":918,"hour":"2015-02-01T10:00:00","sound_avg":78.7182274509804,"sound_min":69.7872,"sound_max":85.4608,"sound_std":52.1233893064602,"sound_var":596.020043983083,"sound_count":186,"sensor":2},{"id":919,"hour":"2015-02-01T11:00:00","sound_avg":78.192268907563,"sound_min":68.3336,"sound_max":92.476,"sound_std":52.2517899885871,"sound_var":644.838140131347,"sound_count":194,"sensor":2},{"id":920,"hour":"2015-02-01T12:00:00","sound_avg":78.4589146067416,"sound_min":72.568,"sound_max":84.9552,"sound_std":51.9983624955802,"sound_var":550.49009218533,"sound_count":178,"sensor":2},{"id":921,"hour":"2015-02-01T13:00:00","sound_avg":78.9938644257703,"sound_min":68.2704,"sound_max":88.9368,"sound_std":52.1527183115305,"sound_var":606.987064127612,"sound_count":187,"sensor":2},{"id":922,"hour":"2015-02-01T14:00:00","sound_avg":78.4486011173184,"sound_min":68.0176,"sound_max":91.4016,"sound_std":52.1144561969103,"sound_var":592.701311519616,"sound_count":185,"sensor":2},{"id":923,"hour":"2015-02-01T15:00:00","sound_avg":78.3868257703081,"sound_min":67.828,"sound_max":85.524,"sound_std":52.2320989345213,"sound_var":637.216095862659,"sound_count":192,"sensor":2},{"id":924,"hour":"2015-02-01T16:00:00","sound_avg":78.6552606741573,"sound_min":67.3224,"sound_max":86.9144,"sound_std":53.0837051207339,"sound_var":1011.69666004292,"sound_count":246,"sensor":2},{"id":925,"hour":"2015-02-01T17:00:00","sound_avg":80.019049859944,"sound_min":67.512,"sound_max":89.1264,"sound_std":52.9559175040334,"sound_var":949.64992767303,"sound_count":238,"sensor":2},{"id":926,"hour":"2015-02-01T18:00:00","sound_avg":79.4109490196078,"sound_min":67.1328,"sound_max":92.0968,"sound_std":53.2017498282271,"sound_var":1070.84942292525,"sound_count":254,"sensor":2},{"id":927,"hour":"2015-02-01T19:00:00","sound_avg":79.2322269662921,"sound_min":70.356,"sound_max":87.0408,"sound_std":53.3048248019918,"sound_var":1123.94330688044,"sound_count":260,"sensor":2}]}